<?xml version="1.0" encoding="utf-8"?>
<!-- Generator: Alexander Vasilyev http://emotion.graphics  -->
<!DOCTYPE svg PUBLIC "-//W3C//DTD SVG 1.1//EN" "http://www.w3.org/Graphics/SVG/1.1/DTD/svg11.dtd">
<svg version="1.1" id="Layer_1" xmlns="http://www.w3.org/2000/svg" xmlns:xlink="http://www.w3.org/1999/xlink" x="0px" y="0px"
	 width="128px" height="128px" viewBox="0 0 128 128" enable-background="new 0 0 128 128" xml:space="preserve">
<g>
	<path fill-rule="evenodd" clip-rule="evenodd" fill="#0070BB" d="M16,0h96c8.837,0,16,7.164,16,16v96c0,8.837-7.163,16-16,16H16
		c-8.836,0-16-7.163-16-16V16C0,7.164,7.164,0,16,0z"/>
</g>
<g>
	<path fill="#FFFFFF" d="M76.978,94.3c0-3.911,2.891-7.18,6.761-8.037c-0.592-0.86-0.932-1.871-0.932-2.968
		c0-3.028,2.618-5.502,5.826-5.502c1.457,0,2.777,0.495,3.78,1.334c1.753-4.021,5.918-6.836,10.789-6.836
		c6.443,0,11.656,4.923,11.656,11.004c0,0.302-0.021,0.623-0.044,0.924c3.459,1.526,5.872,4.858,5.872,8.705
		c0,5.309-4.575,9.63-10.197,9.63H85.719C80.894,102.554,76.978,98.857,76.978,94.3z"/>
	<g>
		<path fill="#FFFFFF" d="M75.269,88.335H34.098c-3.284,0-5.957-2.672-5.957-5.956V37.343c0-3.284,2.672-5.956,5.957-5.956h17.288
			c3.286,0,5.958,2.672,5.958,5.956v3.003c0,1.683,1.369,3.05,3.051,3.05H93.42c3.284,0,5.957,2.671,5.957,5.957v20.004
			c1-0.252,2.038-0.393,3.099-0.442V49.353c0-4.994-4.062-9.055-9.056-9.055H61.393c-0.945,0-0.949-0.663-0.949-1.478
			c0-0.815,0-1.477,0-1.477c0-4.992-4.063-9.055-9.058-9.055H34.098c-4.993,0-9.055,4.062-9.055,9.055v45.036
			c0,4.992,4.062,9.056,9.055,9.056h39.84C74.226,90.332,74.676,89.291,75.269,88.335z"/>
		<path fill="#FFFFFF" d="M93.42,91.435c4.993,0,9.056-4.063,9.056-9.056V72.317c-1.081,0.063-2.12,0.267-3.099,0.588v9.474
			c0,3.284-2.673,5.956-5.957,5.956H79.697c-0.953,0.858-1.705,1.912-2.173,3.1H93.42z"/>
	</g>
	<g>
		<path fill="#FFFFFF" d="M41.382,74.001c0,0.418-0.149,0.775-0.446,1.073c-0.298,0.298-0.655,0.446-1.073,0.446
			s-0.776-0.148-1.073-0.446s-0.446-0.655-0.446-1.073V55.767c0-0.418,0.149-0.776,0.446-1.073s0.655-0.446,1.073-0.446
			s0.775,0.149,1.073,0.446c0.297,0.297,0.446,0.655,0.446,1.073v0.399c1.507-1.279,3.279-1.918,5.318-1.918
			c2.305,0,4.274,0.816,5.907,2.45c0.342,0.342,0.652,0.703,0.931,1.083c0.278-0.38,0.589-0.741,0.931-1.083
			c1.634-1.634,3.603-2.45,5.907-2.45s4.274,0.816,5.907,2.45c1.635,1.633,2.451,3.603,2.451,5.907v11.396
			c0,0.418-0.148,0.775-0.447,1.073c-0.297,0.298-0.654,0.446-1.072,0.446s-0.775-0.148-1.074-0.446
			c-0.297-0.298-0.445-0.655-0.445-1.073V62.604c0-1.469-0.52-2.723-1.558-3.761c-1.039-1.039-2.292-1.558-3.761-1.558
			s-2.723,0.519-3.761,1.558c-1.039,1.038-1.558,2.292-1.558,3.761v11.396c0,0.418-0.149,0.775-0.446,1.073
			c-0.298,0.298-0.655,0.446-1.073,0.446s-0.776-0.148-1.073-0.446s-0.446-0.655-0.446-1.073V62.604
			c0-1.469-0.519-2.723-1.558-3.761c-1.038-1.039-2.292-1.558-3.761-1.558c-1.469,0-2.723,0.519-3.761,1.558
			c-1.039,1.038-1.558,2.292-1.558,3.761V74.001z"/>
		<path fill="#FFFFFF" d="M79.238,73.982l-7.294-17.513c-0.114-0.215-0.171-0.449-0.171-0.703c0-0.418,0.148-0.776,0.446-1.073
			s0.655-0.446,1.073-0.446s0.778,0.146,1.083,0.437c0.164,0.178,0.284,0.368,0.36,0.57l6.154,14.758l6.154-14.758
			c0.076-0.202,0.202-0.392,0.38-0.57c0.291-0.291,0.646-0.437,1.063-0.437s0.775,0.149,1.073,0.446s0.446,0.655,0.446,1.073
			c0,0.253-0.057,0.487-0.171,0.703l-11.32,27.162c-0.076,0.202-0.196,0.387-0.361,0.551c-0.304,0.304-0.664,0.456-1.082,0.456
			S76.297,84.489,76,84.191c-0.298-0.298-0.446-0.655-0.446-1.073c0-0.253,0.057-0.487,0.171-0.703L79.238,73.982z"/>
	</g>
</g>
</svg>
